#FIG 3.2  Produced by xfig version 3.2.5c
Landscape
Center
Metric
A4      
100.00
Single
-2
1200 2
2 1 0 2 0 7 50 -1 -1 0.000 0 0 -1 0 0 2
	 3150 3600 4455 3600
2 1 0 2 0 7 50 -1 -1 0.000 0 0 -1 0 0 2
	 4275 6750 4275 6930
2 1 0 2 0 7 50 -1 -1 0.000 0 0 -1 1 1 2
	1 1 2.00 60.00 60.00
	1 1 2.00 60.00 60.00
	 4275 6840 4950 6840
2 1 1 2 0 7 55 -1 15 4.000 0 0 -1 0 0 4
	 4950 3600 5625 3600 5625 5625 4950 5625
2 1 1 2 0 7 50 -1 -1 4.000 0 0 -1 1 0 2
	1 1 2.00 60.00 60.00
	 4950 6840 5625 6840
2 1 0 2 0 7 65 -1 -1 6.000 0 0 -1 0 0 2
	 4005 6075 6075 6075
2 3 0 0 0 7 70 -1 45 2.000 0 0 -1 0 0 5
	 3960 6525 4005 6075 6075 6075 5985 6525 3960 6525
2 3 1 2 0 7 60 -1 19 4.000 0 0 -1 0 0 11
	 5175 5625 5175 5985 5265 6075 5805 6075 5850 6030 5850 5895
	 5805 5850 5445 5850 5400 5805 5400 5625 5175 5625
2 1 0 2 0 7 50 -1 -1 0.000 0 0 -1 0 0 2
	 3150 6075 3915 6075
2 1 0 2 0 7 50 -1 -1 0.000 0 0 -1 0 0 2
	 4050 6615 4050 7290
2 1 0 2 0 7 50 -1 -1 0.000 0 0 -1 0 0 2
	 4950 6615 4950 7290
2 1 0 2 0 7 50 -1 -1 0.000 0 0 -1 1 1 2
	1 1 2.00 60.00 60.00
	1 1 2.00 60.00 60.00
	 4050 7200 4950 7200
2 1 1 2 0 7 50 -1 -1 4.000 0 0 -1 1 0 2
	1 1 2.00 60.00 60.00
	 4950 7200 5850 7200
2 1 1 2 0 7 50 -1 -1 4.000 0 0 -1 0 0 2
	 5850 6615 5850 7290
2 1 1 2 0 7 50 -1 -1 4.000 0 0 7 0 0 2
	 5625 6750 5625 6930
2 3 0 2 0 7 60 -1 18 0.000 0 0 -1 0 0 11
	 4500 5625 4500 5805 4455 5850 4095 5850 4050 5895 4050 6030
	 4095 6075 4635 6075 4725 5985 4725 5625 4500 5625
2 1 1 2 0 7 70 -1 19 4.000 0 0 -1 0 0 7
	 4725 5805 4770 5850 5130 5850 5175 5895 5175 6030 5130 6075
	 4680 6075
2 1 0 2 0 7 65 -1 -1 6.000 0 0 -1 0 0 2
	 3960 6525 5985 6525
2 2 0 2 0 7 50 -1 13 0.000 0 0 7 0 0 5
	 4275 3600 4950 3600 4950 5625 4275 5625 4275 3600
2 3 0 2 0 7 40 -1 18 0.000 0 0 -1 0 0 15
	 4455 3600 4770 3600 4770 4050 4725 4140 4725 4230 4770 4320
	 4770 5130 4725 5175 4500 5175 4455 5130 4455 4320 4500 4230
	 4500 4140 4455 4050 4455 3600
2 3 1 2 0 7 40 -1 19 4.000 0 0 7 0 0 15
	 5130 3600 5445 3600 5445 4050 5400 4140 5400 4230 5445 4320
	 5445 5130 5400 5175 5175 5175 5130 5130 5130 4320 5175 4230
	 5175 4140 5130 4050 5130 3600
2 1 0 2 0 7 40 -1 -1 0.000 0 0 -1 0 0 2
	 3960 4185 4455 4185
2 1 0 2 0 7 50 -1 -1 0.000 0 0 -1 1 1 2
	1 1 2.00 60.00 60.00
	1 1 2.00 60.00 60.00
	 4050 3600 4050 4185
2 1 0 2 0 7 40 -1 -1 0.000 0 0 -1 0 0 2
	 3555 5175 4455 5175
2 1 0 2 0 7 50 -1 -1 0.000 0 0 -1 1 1 2
	1 1 2.00 60.00 60.00
	1 1 2.00 60.00 60.00
	 3240 3600 3240 6075
2 1 0 2 0 7 50 -1 -1 0.000 0 0 -1 1 1 2
	1 1 2.00 60.00 60.00
	1 1 2.00 60.00 60.00
	 3645 3600 3645 5175
2 1 0 2 0 7 50 -1 -1 0.000 0 0 -1 1 1 2
	1 1 2.00 45.00 45.00
	1 1 2.00 45.00 45.00
	 3825 5850 3825 6075
2 1 0 2 0 7 50 -1 -1 0.000 0 0 -1 0 0 2
	 3735 5850 4050 5850
4 1 0 50 -1 22 12 0.0000 4 135 120 4590 7065 D\001
4 0 0 50 -1 22 12 0.0000 4 135 345 6120 6345 PCB\001
4 1 0 50 -1 22 12 0.0000 4 135 105 4500 7425 E\001
4 2 0 50 -1 22 12 0.0000 4 135 120 3960 3960 A\001
4 2 0 50 -1 22 12 0.0000 4 135 120 3150 4905 B\001
4 2 0 50 -1 22 12 0.0000 4 135 105 3555 4455 Z\001
4 2 0 50 -1 22 12 0.0000 4 135 120 3735 6030 C\001
