#FIG 3.2  Produced by xfig version 3.2.6
Landscape
Center
Metric
A4
100.00
Single
-2
1200 2
5 1 0 2 0 7 400 -1 -1 0.000 1 0 0 0 7222.500 9157.500 6750 8775 6840 8685 7200 8550
5 1 0 2 0 7 400 -1 -1 0.000 1 0 0 0 10327.500 9292.500 10800 9675 10710 9765 10350 9900
5 1 0 2 0 7 400 -1 -1 0.000 1 0 0 0 7267.500 9202.500 6795 8820 6885 8730 7245 8595
5 1 0 2 0 7 400 -1 -1 0.000 1 0 0 0 10282.500 9247.500 10755 9630 10665 9720 10305 9855
6 5715 9090 11835 10530
5 1 0 2 0 7 500 -1 -1 0.000 1 0 0 0 10327.500 9877.500 10800 10260 10710 10350 10350 10485
5 1 0 2 0 7 500 -1 -1 0.000 1 0 0 0 7222.500 9742.500 6750 9360 6840 9270 7200 9135
2 1 0 2 0 7 500 -1 -1 0.000 1 1 -1 0 0 2
	 7200 9135 11700 9135
2 1 0 2 0 7 500 -1 -1 0.000 1 1 -1 0 0 2
	 10800 10260 11700 9360
2 1 0 2 0 7 500 -1 -1 0.000 1 1 -1 0 0 2
	 5850 10485 10350 10485
2 1 0 2 0 7 500 -1 -1 0.000 1 1 -1 0 0 2
	 5850 10260 6750 9360
3 2 0 2 0 7 500 -1 -1 0.000 1 0 0 3
	 11700 9360 11790 9225 11700 9135
	 0.000 -1.000 0.000
3 2 0 2 0 7 500 -1 -1 0.000 1 0 0 3
	 5850 10485 5760 10395 5850 10260
	 0.000 -1.000 0.000
-6
6 5715 5805 11835 7245
5 1 0 2 0 7 90 -1 -1 0.000 1 0 0 0 10327.500 6457.500 10800 6840 10710 6930 10350 7065
5 1 0 2 0 7 90 -1 -1 0.000 1 0 0 0 10282.500 6412.500 10755 6795 10665 6885 10305 7020
5 1 0 2 0 7 95 -1 -1 0.000 1 0 0 0 10327.500 6592.500 10800 6975 10710 7065 10350 7200
2 1 0 2 0 7 90 -1 -1 0.000 1 1 -1 0 0 2
	 5850 6840 6840 5850
2 1 0 2 0 7 90 -1 -1 0.000 1 1 7 0 0 2
	 5850 7065 10350 7065
2 1 0 2 0 7 90 -1 -1 0.000 1 1 -1 0 0 2
	 5985 7020 10305 7020
2 1 0 2 0 7 90 -1 -1 0.000 1 1 -1 0 0 3
	 6840 5850 6930 5850 5985 6795
2 1 0 2 0 7 90 -1 -1 0.000 1 1 7 0 0 4
	 10800 6840 11790 5850 11700 5850 10755 6795
2 1 0 2 0 7 95 -1 -1 0.000 1 1 7 0 0 2
	 5850 7200 10350 7200
2 1 0 2 0 7 95 -1 -1 0.000 1 1 -1 0 0 3
	 10800 6975 11790 5985 11790 5850
2 1 0 2 0 7 95 -1 -1 0.000 1 1 -1 0 0 3
	 6930 5850 6930 5985 5940 6975
2 1 0 2 0 7 90 -1 -1 0.000 1 1 -1 0 0 2
	 5760 6975 5760 7110
2 2 0 0 0 7 92 -1 20 0.000 1 1 -1 0 0 5
	 5760 7110 5895 7110 5895 6930 5760 6930 5760 7110
3 2 0 2 0 7 90 -1 -1 0.000 1 0 0 3
	 5850 7065 5760 6975 5850 6840
	 0.000 -1.000 0.000
3 2 0 2 0 7 90 -1 -1 0.000 1 0 0 3
	 5985 7020 5895 6930 5985 6795
	 0.000 -1.000 0.000
3 2 0 2 0 7 95 -1 -1 0.000 1 0 0 3
	 5850 7200 5760 7110 5850 6975
	 0.000 -1.000 0.000
-6
6 5715 5040 11835 6705
5 1 0 2 0 7 70 -1 -1 0.000 1 0 0 0 7222.500 5917.500 6750 5535 6840 5445 7200 5310
5 1 0 2 0 7 70 -1 -1 0.000 1 0 0 0 10327.500 6052.500 10800 6435 10710 6525 10350 6660
5 1 0 2 0 7 60 -1 -1 0.000 1 0 0 0 10327.500 5827.500 10800 6210 10710 6300 10350 6435
5 1 0 2 0 7 60 -1 -1 0.000 1 0 0 0 7222.500 5692.500 6750 5310 6840 5220 7200 5085
2 1 0 2 0 7 70 -1 -1 0.000 1 1 -1 0 0 2
	 7200 5310 11700 5310
2 1 0 2 0 7 70 -1 -1 0.000 1 1 -1 0 0 2
	 10800 6435 11700 5535
2 1 0 2 0 7 60 -1 -1 0.000 1 1 -1 0 0 2
	 10800 6210 11700 5310
2 1 0 2 0 7 60 -1 -1 0.000 1 1 -1 0 0 2
	 5850 6435 10350 6435
2 1 0 2 0 7 60 -1 -1 0.000 1 1 -1 0 0 2
	 5850 6210 6750 5310
2 1 0 2 0 7 60 -1 -1 0.000 1 1 -1 0 0 2
	 5760 6570 5760 6345
2 1 0 2 0 7 60 -1 -1 0.000 1 1 -1 0 0 2
	 11790 5400 11790 5175
2 1 0 2 0 7 60 -1 -1 0.000 1 1 -1 0 0 2
	 7200 5085 11700 5085
2 1 0 2 0 7 70 -1 -1 0.000 1 1 -1 0 0 2
	 5850 6435 6750 5535
2 3 0 0 0 7 65 -1 20 0.000 1 1 -1 0 0 8
	 5760 6525 10485 6525 11790 5400 11790 5220 11610 5085 7155 5085
	 5760 6390 5760 6525
2 1 0 2 0 7 70 -1 -1 0.000 1 1 -1 0 0 2
	 5850 6660 10350 6660
2 3 0 0 0 7 75 -1 20 0.000 1 1 -1 0 0 7
	 5895 6660 5985 6210 7335 5400 11655 5580 11430 5805 7470 6660
	 5895 6660
3 2 0 2 0 7 70 -1 -1 0.000 1 0 0 3
	 5850 6660 5760 6570 5850 6435
	 0.000 -1.000 0.000
3 2 0 2 0 7 70 -1 -1 0.000 1 0 0 3
	 11700 5535 11790 5400 11700 5310
	 0.000 -1.000 0.000
3 2 0 2 0 7 60 -1 -1 0.000 1 0 0 3
	 11700 5310 11790 5175 11700 5085
	 0.000 -1.000 0.000
3 2 0 2 0 7 60 -1 -1 0.000 1 0 0 3
	 5850 6435 5760 6345 5850 6210
	 0.000 -1.000 0.000
-6
2 1 0 2 0 7 400 -1 -1 0.000 1 1 -1 0 0 2
	 5850 9900 10350 9900
2 1 0 2 0 7 400 -1 -1 0.000 1 1 -1 0 0 2
	 10800 9675 11700 8775
2 1 0 2 0 7 400 -1 -1 0.000 1 1 -1 0 0 2
	 5850 9675 6750 8775
2 3 0 0 0 7 450 -1 20 0.000 1 1 -1 0 0 8
	 5760 10395 10485 10395 11790 9180 11790 8685 11610 8550 7155 8550
	 5760 9855 5760 10395
2 1 0 2 0 7 400 -1 -1 0.000 1 1 -1 0 0 2
	 7200 8550 11700 8550
2 1 0 2 0 7 400 -1 -1 0.000 1 1 -1 0 0 2
	 11790 8640 11790 9225
2 1 0 2 0 7 400 -1 -1 0.000 1 1 -1 0 0 2
	 5760 10395 5760 9810
2 1 0 2 0 7 400 -1 -1 0.000 1 1 -1 0 0 2
	 7245 8595 11565 8595
2 1 0 2 0 7 400 -1 -1 0.000 1 1 -1 0 0 2
	 11565 8820 10755 9630
2 1 0 2 0 7 400 -1 -1 0.000 1 1 -1 0 0 2
	 10305 9855 5985 9855
2 1 0 2 0 7 400 -1 -1 0.000 1 1 -1 0 0 2
	 5985 9630 6795 8820
2 1 1 2 0 7 100 -1 -1 3.000 1 1 -1 0 0 2
	 14175 2700 14175 3465
2 1 1 2 0 7 70 -1 -1 3.000 1 1 -1 0 0 2
	 11790 5490 11790 8550
2 1 1 2 0 7 100 -1 -1 3.000 1 1 -1 0 0 2
	 12150 4725 12150 5490
2 1 1 2 0 7 100 -1 -1 3.000 1 1 -1 0 0 2
	 8325 4725 8325 5490
2 3 0 2 0 7 100 -1 20 0.000 1 1 -1 0 0 5
	 10350 2700 8325 4725 12150 4725 14175 2700 10350 2700
2 3 0 2 0 7 50 -1 20 0.000 1 1 -1 0 0 9
	 9225 4050 11475 4050 11700 3825 11610 3600 11835 3375 10215 3375
	 9990 3600 9450 3825 9225 4050
2 1 1 2 0 7 80 -1 -1 3.000 1 1 -1 0 0 2
	 11835 3375 11835 4275
2 1 1 2 0 7 80 -1 -1 3.000 1 1 -1 0 0 2
	 11475 4050 11475 4950
2 1 1 2 0 7 80 -1 -1 3.000 1 1 -1 0 0 2
	 9225 4050 9225 4950
2 1 1 2 0 7 80 -1 -1 3.000 1 1 -1 0 0 2
	 10215 3375 10215 4275
2 2 0 0 0 7 97 -1 20 0.000 1 1 -1 0 0 5
	 6435 7020 6750 7020 6750 7200 6435 7200 6435 7020
2 1 1 2 0 7 70 -1 -1 3.000 1 1 -1 0 0 2
	 5760 6660 5760 9720
2 3 0 2 0 7 300 -1 20 0.000 1 1 -1 0 0 9
	 6120 8370 6840 7650 7290 7425 11430 7425 11430 7650 10710 8370
	 10260 8595 6120 8595 6120 8370
2 3 0 2 0 7 350 -1 20 0.000 1 1 -1 0 0 9
	 7200 9315 6075 9315 6435 8910 7290 8910 7560 8640 6840 8640
	 6975 8505 8010 8505 7200 9315
2 1 0 2 0 7 50 -1 20 0.000 1 1 -1 0 0 2
	 11835 6705 12375 6705
2 1 0 2 0 7 50 -1 20 0.000 1 1 -1 0 0 2
	 14985 3600 15525 3600
2 3 0 2 0 7 60 -1 -1 0.000 1 0 -1 0 0 5
	 6480 6300 7560 5220 11070 5220 9990 6300 6480 6300
2 3 0 2 0 7 200 -1 20 0.000 1 1 -1 0 0 7
	 6120 7875 10260 7875 10710 7650 14760 3600 10170 3600 6120 7650
	 6120 7875
3 2 0 2 0 7 400 -1 -1 0.000 1 0 0 3
	 5850 9900 5760 9810 5850 9675
	 0.000 -1.000 0.000
3 2 0 2 0 7 400 -1 -1 0.000 1 0 0 3
	 11700 8775 11790 8640 11700 8550
	 0.000 -1.000 0.000
3 2 0 2 0 7 400 -1 -1 0.000 1 0 0 3
	 5985 9855 5895 9765 5985 9630
	 0.000 -1.000 0.000
3 2 0 2 0 7 400 -1 -1 0.000 1 0 0 3
	 11565 8820 11655 8685 11565 8595
	 0.000 -1.000 0.000
4 2 0 50 -1 18 24 0.0000 4 390 2835 9270 3600 Adapter board\001
4 1 0 50 -1 18 24 0.7854 4 390 4155 13860 5265 v2-specific extension\001
4 2 0 50 -1 18 24 0.0000 4 390 2595 5535 7020 Spacer frame\001
4 2 0 50 -1 18 24 0.0000 4 390 1515 5535 7335 (partial)\001
4 1 0 50 -1 18 24 0.0000 4 300 1530 8595 8370 LOWER\001
4 0 0 50 -1 18 24 0.0000 4 300 915 7695 9225 BOB\001
4 1 0 50 -1 18 24 0.0000 4 390 3255 11835 2475 BeagleBoard-xM\001
4 1 0 50 -1 18 24 0.0000 4 300 1410 8640 7695 UPPER\001
4 1 0 50 -1 18 24 0.0000 4 300 1995 8595 10350 N900 case\001
4 1 0 50 -1 18 24 0.0000 4 390 2520 8775 5895 N900 display\001
