<Qucs Schematic 0.0.18>
<Properties>
  <View=0,0,1487,963,1,0,0>
  <Grid=10,10,1>
  <DataSet=isense.dat>
  <DataDisplay=isense.dpl>
  <OpenDisplay=0>
  <Script=isense.m>
  <RunScript=0>
  <showFrame=0>
  <FrameText0=Title>
  <FrameText1=Drawn By:>
  <FrameText2=Date:>
  <FrameText3=Revision:>
</Properties>
<Symbol>
</Symbol>
<Components>
  <GND * 1 340 560 0 0 0 0>
  <Vdc V1 1 240 210 18 -26 0 1 "4.3 V" 1>
  <GND * 1 240 280 0 0 0 0>
  <R R2 1 340 190 15 -26 0 1 "R2" 1 "26.85" 0 "0.0" 0 "0.0" 0 "26.85" 0 "european" 0>
  <.SW SW2 1 40 620 0 77 0 0 "SW1" 1 "lin" 1 "R2tol" 1 "-1" 1 "1" 1 "2" 1>
  <.SW SW3 1 190 620 0 77 0 0 "SW2" 1 "lin" 1 "R3tol" 1 "-1" 1 "1" 1 "2" 1>
  <.SW SW4 1 340 620 0 77 0 0 "SW3" 1 "lin" 1 "R4tol" 1 "-1" 1 "1" 1 "2" 1>
  <.SW SW5 1 490 620 0 77 0 0 "SW4" 1 "lin" 1 "R5tol" 1 "-1" 1 "1" 1 "2" 1>
  <.SW SW6 1 650 620 0 77 0 0 "SW5" 1 "lin" 1 "R6tol" 1 "-1" 1 "1" 1 "2" 1>
  <R R3 1 340 490 15 -26 0 1 "R3" 1 "26.85" 0 "0.0" 0 "0.0" 0 "26.85" 0 "european" 0>
  <.DC DC1 1 30 40 0 46 0 0 "26.85" 0 "0.001" 0 "1 pA" 0 "1 uV" 0 "no" 0 "150" 0 "no" 0 "none" 0 "CroutLU" 0>
  <GND * 1 480 560 0 0 0 0>
  <GND * 1 680 140 0 0 0 0>
  <Idc I1 1 610 100 -26 18 0 0 "Isim" 1>
  <R R4 1 480 190 19 -26 1 3 "R4" 1 "26.85" 0 "0.0" 0 "0.0" 0 "26.85" 0 "european" 0>
  <R R5 1 480 490 15 -26 0 1 "R5" 1 "26.85" 0 "0.0" 0 "0.0" 0 "26.85" 0 "european" 0>
  <OpAmp OP1 1 610 400 -27 -85 1 0 "1e6" 0 "2.5 V" 1>
  <R R1 1 410 100 -13 -58 1 0 "2 Ohm" 1 "26.85" 0 "0.0" 0 "0.0" 0 "26.85" 0 "european" 0>
  <.SW SW1 1 30 140 0 77 0 0 "DC1" 1 "lin" 1 "Isim" 1 "0 mA" 1 "100 mA" 1 "100" 1>
  <R R6 1 630 280 -26 -57 0 2 "R6" 1 "26.85" 0 "0.0" 0 "0.0" 0 "26.85" 0 "european" 0>
  <Eqn Eqn1 1 60 410 -23 16 0 0 "R2=180k*(100+R2tol)/100" 1 "R3=100k*(100+R3tol)/100" 1 "R4=180k*(100+R4tol)/100" 1 "R5=105k*(100+R5tol)/100" 1 "R6=1.1M*(100+R6tol)/100" 1 "yes" 0>
</Components>
<Wires>
  <340 520 340 560 "" 0 0 0 "">
  <340 420 340 460 "" 0 0 0 "">
  <340 220 340 420 "" 0 0 0 "">
  <340 100 340 160 "" 0 0 0 "">
  <340 100 380 100 "" 0 0 0 "">
  <240 100 240 180 "" 0 0 0 "">
  <240 100 340 100 "" 0 0 0 "">
  <240 240 240 280 "" 0 0 0 "">
  <680 100 680 140 "" 0 0 0 "">
  <640 100 680 100 "" 0 0 0 "">
  <440 100 480 100 "" 0 0 0 "">
  <480 220 480 380 "" 0 0 0 "">
  <480 100 580 100 "" 0 0 0 "">
  <480 100 480 160 "" 0 0 0 "">
  <480 380 480 460 "" 0 0 0 "">
  <480 520 480 560 "" 0 0 0 "">
  <340 420 580 420 "" 0 0 0 "">
  <480 380 540 380 "" 0 0 0 "">
  <540 380 580 380 "" 0 0 0 "">
  <650 400 700 400 "" 0 0 0 "">
  <540 280 540 380 "" 0 0 0 "">
  <540 280 600 280 "" 0 0 0 "">
  <700 280 700 400 "" 0 0 0 "">
  <660 280 700 280 "" 0 0 0 "">
  <700 400 700 400 "Vadc" 750 360 0 "">
</Wires>
<Diagrams>
  <Rect 859 809 506 771 3 #c0c0c0 1 00 1 0 0.005 0.05 0 0 0.2 2.5 1 -1 0.2 1 315 0 225 "Isim (A)" "Vadc (V)" "">
	<"Vadc.V" #0000ff 0 3 0 0 0>
  </Rect>
</Diagrams>
<Paintings>
</Paintings>
