#FIG 3.2  Produced by xfig version 3.2.5c
Landscape
Center
Metric
A4      
100.00
Single
-2
1200 2
2 1 0 2 0 7 50 -1 -1 0.000 0 0 -1 0 0 2
	 4050 4050 4725 4050
2 1 0 2 0 7 50 -1 -1 0.000 0 0 -1 0 0 2
	 5175 4050 6975 4050
2 1 0 2 0 7 50 -1 -1 0.000 0 0 -1 0 0 2
	 4500 4725 4500 4050
2 1 0 2 0 7 50 -1 -1 0.000 0 0 -1 0 0 2
	 5400 4725 5400 4050
2 2 0 2 0 7 60 -1 18 0.000 0 0 -1 0 0 5
	 4725 3960 5175 3960 5175 4140 4725 4140 4725 3960
2 1 0 2 0 7 50 -1 -1 0.000 0 0 -1 0 0 2
	 4500 5175 4500 6075
2 1 0 2 0 7 50 -1 -1 0.000 0 0 -1 0 0 2
	 5400 6075 5400 5175
2 1 0 2 0 7 50 -1 -1 0.000 0 0 -1 0 0 2
	 5400 5400 6300 5400
2 1 0 2 0 7 50 -1 -1 0.000 0 0 -1 0 0 2
	 6300 5850 4500 5850
2 1 0 2 0 7 50 -1 -1 0.000 0 0 -1 0 0 2
	 4500 6525 4500 6750
2 1 0 2 0 7 50 -1 -1 0.000 0 0 -1 0 0 2
	 5400 6525 5400 6750
2 1 0 2 0 7 50 -1 -1 0.000 0 0 -1 0 0 2
	 4365 6750 4635 6750
2 1 0 2 0 7 50 -1 -1 0.000 0 0 -1 0 0 2
	 5265 6750 5535 6750
2 1 0 2 0 7 50 -1 -1 0.000 0 0 -1 0 0 3
	 6075 5400 6075 4725 6435 4725
2 1 0 2 0 7 50 -1 -1 0.000 0 0 -1 0 0 2
	 6345 5400 6525 5400
2 1 0 2 0 7 50 -1 -1 0.000 0 0 -1 0 0 2
	 6345 5850 6525 5850
2 1 0 2 0 7 50 -1 -1 0.000 0 0 -1 0 0 2
	 6435 5760 6435 5940
2 1 0 2 0 7 50 -1 -1 0.000 0 0 -1 0 0 2
	 7020 5625 7650 5625
2 1 0 2 0 7 50 -1 -1 0.000 0 0 -1 0 0 3
	 7200 5625 7200 4725 6885 4725
2 1 0 2 0 7 50 -1 -1 0.000 0 0 -1 0 0 2
	 6705 5850 6705 6075
2 1 0 2 0 7 50 -1 -1 0.000 0 0 -1 0 0 2
	 6615 6075 6795 6075
2 2 0 2 0 7 60 -1 18 0.000 0 0 -1 0 0 5
	 4410 6075 4590 6075 4590 6525 4410 6525 4410 6075
2 2 0 2 0 7 60 -1 18 0.000 0 0 -1 0 0 5
	 5310 6075 5490 6075 5490 6525 5310 6525 5310 6075
2 2 0 2 0 7 60 -1 18 0.000 0 0 -1 0 0 5
	 5310 4725 5490 4725 5490 5175 5310 5175 5310 4725
2 2 0 2 0 7 60 -1 18 0.000 0 0 -1 0 0 5
	 4410 4725 4590 4725 4590 5175 4410 5175 4410 4725
2 2 0 2 0 7 60 -1 18 0.000 0 0 -1 0 0 5
	 6435 4635 6885 4635 6885 4815 6435 4815 6435 4635
2 3 0 2 0 7 60 -1 18 0.000 0 0 -1 0 0 4
	 6300 6120 6300 5130 7020 5625 6300 6120
2 1 0 2 0 7 60 -1 -1 0.000 0 0 -1 1 0 2
	1 1 2.00 60.00 60.00
	 5625 3960 6165 3960
2 1 0 2 0 7 50 -1 -1 0.000 0 0 -1 0 0 2
	 6705 5175 6705 5400
4 0 0 50 -1 22 12 0.0000 4 135 510 4725 3915 2 Ohm\001
4 0 0 50 -1 22 12 0.0000 4 135 210 4725 3735 R1\001
4 0 0 50 -1 22 12 0.0000 4 135 210 4635 4905 R2\001
4 0 0 50 -1 22 12 0.0000 4 135 210 4635 6255 R3\001
4 0 0 50 -1 22 12 0.0000 4 135 210 5535 4905 R4\001
4 0 0 50 -1 22 12 0.0000 4 135 210 5535 6255 R5\001
4 1 0 50 -1 22 12 0.0000 4 135 825 6705 5130 VINTANA2\001
4 0 0 50 -1 22 12 0.0000 4 135 615 7695 5670 ADCINx\001
4 0 0 50 -1 22 12 0.0000 4 135 405 4635 5085 180 k\001
4 0 0 50 -1 22 12 0.0000 4 135 405 5535 5085 180 k\001
4 0 0 50 -1 22 12 0.0000 4 135 405 4635 6435 100 k\001
4 0 0 50 -1 22 12 0.0000 4 135 405 5535 6435 105 k\001
4 0 0 50 -1 22 12 0.0000 4 135 210 6435 4410 R6\001
4 0 0 50 -1 22 12 0.0000 4 135 405 6435 4590 1.1 M\001
4 2 0 50 -1 22 12 0.0000 4 135 585 4005 4005 3.3 V or\001
4 2 0 50 -1 22 12 0.0000 4 165 1410 4005 4185 VBAT_SWITCHED\001
4 0 0 60 -1 22 12 0.0000 4 180 1140 7020 4095 SIM regulators\001
4 0 0 60 -1 22 12 0.0000 4 135 1365 2700 5400 All resistors have\001
4 0 0 60 -1 22 12 0.0000 4 135 915 2700 5580 a maximum\001
4 0 0 60 -1 22 12 0.0000 4 135 1230 2700 5760 tolerance of 1%\001
4 1 0 60 -1 22 12 0.0000 4 135 330 5850 3915 Isim\001
