#FIG 3.2  Produced by xfig version 3.2.5b
Landscape
Center
Metric
A4      
100.00
Single
-2
1200 2
2 1 0 2 0 7 50 -1 -1 0.000 0 0 -1 0 0 4
	 4050 2115 4185 2115 4815 2835 4950 2835
2 1 0 2 0 7 50 -1 -1 0.000 0 0 -1 0 0 4
	 4050 2835 4185 2835 4815 2115 4950 2115
2 2 0 2 0 7 60 -1 18 0.000 0 0 7 0 0 5
	 5175 1800 3825 1800 3825 3150 5175 3150 5175 1800
2 2 0 2 0 7 60 -1 18 0.000 0 0 -1 0 0 5
	 1575 1800 675 1800 675 900 1575 900 1575 1800
2 1 1 2 0 7 50 -1 -1 4.000 0 0 -1 0 0 4
	 1575 1530 3150 1530 3150 2205 3825 2205
2 1 0 2 0 7 50 -1 -1 0.000 0 0 -1 0 0 4
	 1575 1260 3375 1260 3375 1935 3825 1935
2 1 0 2 0 7 50 -1 -1 0.000 0 0 -1 0 0 2
	 5175 2115 6525 2115
2 3 0 2 0 7 60 -1 18 0.000 0 0 7 0 0 6
	 6525 2295 6525 2025 6705 1845 7200 1845 7200 2295 6525 2295
2 1 0 2 0 7 50 -1 -1 0.000 0 0 -1 0 0 2
	 5175 2835 6525 2835
2 3 0 2 0 7 60 -1 18 0.000 0 0 7 0 0 6
	 6525 3015 6525 2745 6705 2565 7200 2565 7200 3015 6525 3015
2 1 0 3 0 7 50 -1 -1 0.000 0 0 -1 0 0 2
	 5850 4050 5850 2925
2 1 0 3 0 7 50 -1 -1 0.000 0 0 -1 0 0 2
	 5850 2205 5850 2565
2 1 0 3 0 7 50 -1 -1 0.000 0 0 -1 0 0 2
	 5850 675 5850 1845
2 2 0 2 0 7 60 -1 18 0.000 0 0 7 0 0 5
	 1575 2925 675 2925 675 2025 1575 2025 1575 2925
2 1 0 2 0 7 50 -1 -1 0.000 0 0 -1 0 0 2
	 1575 2475 3825 2475
2 2 0 2 0 7 60 -1 18 0.000 0 0 7 0 0 5
	 1575 4050 675 4050 675 3150 1575 3150 1575 4050
2 1 0 2 0 7 50 -1 -1 0.000 0 0 -1 1 0 3
	1 1 2.00 60.00 60.00
	 1575 3825 4725 3825 4725 3150
2 1 0 2 0 7 50 -1 -1 0.000 0 0 -1 1 0 5
	1 1 2.00 60.00 60.00
	 1575 2700 2925 2700 3645 3420 4275 3420 4275 3150
2 1 0 2 0 7 50 -1 -1 0.000 0 0 -1 0 0 4
	 1575 3600 3375 3600 3375 2925 3825 2925
2 1 0 2 0 7 50 -1 -1 0.000 0 0 -1 0 0 4
	 1575 3375 3150 3375 3150 2700 3825 2700
4 1 0 50 -1 18 12 0.0000 4 150 690 1125 1440 Modem\001
4 1 0 50 -1 23 12 0.0000 4 135 450 2250 1215 SIM A\001
4 1 0 50 -1 23 12 0.0000 4 135 450 2250 1485 SIM B\001
4 1 0 50 -1 23 12 0.0000 4 135 870 5850 2070 SIM+SWP 1\001
4 1 0 50 -1 18 12 0.0000 4 165 630 6885 2160 SIM #1\001
4 0 0 50 -1 22 12 0.0000 4 135 480 7290 2070 Under\001
4 0 0 50 -1 22 12 0.0000 4 180 555 7290 2250 battery\001
4 1 0 50 -1 23 12 0.0000 4 135 870 5850 2790 SIM+SWP 2\001
4 1 0 50 -1 18 12 0.0000 4 165 630 6885 2880 SIM #2\001
4 0 0 50 -1 22 12 0.0000 4 135 525 7290 2880 Slot-in\001
4 2 0 50 -1 22 12 0.0000 4 135 690 5625 900 Terminal\001
4 0 0 50 -1 22 12 0.0000 4 135 495 6075 900 UICCs\001
4 1 0 50 -1 18 12 0.0000 4 150 630 4500 1755 Switch\001
4 1 0 50 -1 23 12 0.0000 4 165 720 2250 2430 SIM_CPU\001
4 1 0 50 -1 18 12 0.0000 4 150 390 1080 3690 NFC\001
4 1 0 50 -1 18 12 0.0000 4 150 405 1125 2565 CPU\001
4 1 0 50 -1 23 12 0.0000 4 135 495 2250 3330 SWP 1\001
4 1 0 50 -1 23 12 0.0000 4 135 600 2250 2655 Control\001
4 1 0 50 -1 23 12 0.0000 4 135 495 2250 3555 SWP 2\001
4 1 0 50 -1 23 12 0.0000 4 135 600 2250 3780 Control\001
