#FIG 3.2  Produced by xfig version 3.2.5c
Landscape
Center
Metric
A4      
100.00
Single
-2
1200 2
2 1 0 2 0 7 50 -1 -1 0.000 0 0 -1 0 0 2
	 5805 6300 6525 6300
2 1 0 2 0 7 50 -1 -1 0.000 0 0 -1 0 0 2
	 6975 6480 7875 6480
2 2 0 2 0 7 50 -1 -1 0.000 0 0 -1 0 0 5
	 6525 6075 6975 6075 6975 6570 6525 6570 6525 6075
2 1 0 2 0 7 50 -1 -1 0.000 0 0 -1 0 0 4
	 5580 5625 5805 5625 5805 7020 5580 7020
2 2 0 2 0 7 50 -1 -1 0.000 0 0 -1 0 0 5
	 7875 6975 8280 6975 8280 6075 7875 6075 7875 6975
2 1 0 2 0 7 50 -1 -1 0.000 0 0 -1 0 0 2
	 6975 6165 7875 6165
2 1 0 2 0 7 50 -1 -1 0.000 0 0 -1 0 0 2
	 6165 6300 6165 6975
4 1 0 50 -1 22 12 0.0000 4 135 375 6750 6390 MCU\001
4 1 0 50 -1 22 12 0.0000 4 135 435 6165 6255 I2C#1\001
4 1 0 50 -1 22 12 1.5708 4 135 345 5715 6300 CPU\001
4 1 0 50 -1 22 12 1.5708 4 135 345 8145 6525 NFC\001
4 1 0 50 -1 22 12 0.0000 4 135 330 7425 6435 Raw\001
4 1 0 50 -1 22 12 0.0000 4 135 825 7425 6120 SPI / I2C#2\001
4 0 0 50 -1 22 12 0.0000 4 135 1080 6075 7155 Other devices\001
