#FIG 3.2  Produced by xfig version 3.2.5c
Landscape
Center
Metric
A4      
100.00
Single
-2
1200 2
6 3780 4680 5850 4995
2 1 0 2 0 7 50 -1 -1 0.000 0 0 -1 0 0 2
	 4725 4725 4725 4950
2 1 0 2 0 7 50 -1 -1 0.000 0 0 -1 0 0 2
	 4275 4725 4275 4950
2 1 0 2 0 7 50 -1 -1 0.000 0 0 -1 0 0 2
	 4995 4725 4995 4950
2 1 0 2 0 7 50 -1 -1 0.000 0 0 -1 0 0 2
	 5535 4725 5535 4950
2 1 0 2 0 7 50 -1 -1 0.000 0 0 -1 0 0 2
	 5265 4725 5265 4950
2 2 0 2 0 7 50 -1 -1 0.000 0 0 -1 0 0 5
	 3825 4725 5805 4725 5805 4950 3825 4950 3825 4725
4 1 0 50 -1 18 12 0.0000 4 135 105 4860 4905 0\001
4 1 0 50 -1 18 12 0.0000 4 135 105 5130 4905 0\001
4 1 0 50 -1 18 12 0.0000 4 135 105 5400 4905 1\001
4 1 0 50 -1 18 12 0.0000 4 135 105 5670 4905 0\001
4 1 0 50 -1 18 12 0.0000 4 150 270 4050 4905 AC\001
4 1 0 50 -1 18 12 0.0000 4 135 105 4500 4905 4\001
-6
2 1 0 2 0 7 50 -1 -1 0.000 0 0 -1 0 0 2
	 4995 5850 4995 6075
2 1 0 2 0 7 50 -1 -1 0.000 0 0 -1 0 0 2
	 5265 5850 5265 6075
2 1 0 2 0 7 50 -1 -1 0.000 0 0 -1 0 0 2
	 5535 5850 5535 6075
2 1 0 2 0 7 50 -1 -1 0.000 0 0 -1 0 0 2
	 5805 5850 5805 6075
2 1 0 2 0 7 50 -1 -1 0.000 0 0 -1 0 0 2
	 6075 5850 6075 6075
2 1 0 2 0 7 50 -1 -1 0.000 0 0 -1 0 0 2
	 6345 5850 6345 6075
2 1 0 2 0 7 50 -1 -1 0.000 0 0 -1 0 0 2
	 6615 5850 6615 6075
2 1 0 2 0 7 50 -1 -1 0.000 0 0 -1 0 0 2
	 4995 5400 4995 5625
2 1 0 2 0 7 50 -1 -1 0.000 0 0 -1 0 0 2
	 5265 5400 5265 5625
2 1 0 2 0 7 50 -1 -1 0.000 0 0 -1 0 0 2
	 5535 5400 5535 5625
2 1 0 2 0 7 50 -1 -1 0.000 0 0 -1 0 0 2
	 5805 5400 5805 5625
2 1 0 2 0 7 50 -1 -1 0.000 0 0 -1 0 0 2
	 6075 5400 6075 5625
2 1 0 2 0 7 50 -1 -1 0.000 0 0 -1 0 0 2
	 6345 5400 6345 5625
2 1 0 2 0 7 50 -1 -1 0.000 0 0 -1 0 0 2
	 6615 5400 6615 5625
2 2 0 2 0 7 50 -1 -1 0.000 0 0 -1 0 0 5
	 4725 5400 6885 5400 6885 5625 4725 5625 4725 5400
2 1 0 2 0 7 50 -1 -1 0.000 0 0 -1 0 0 2
	 4995 6300 4995 6525
2 1 0 2 0 7 50 -1 -1 0.000 0 0 -1 0 0 2
	 5265 6300 5265 6525
2 1 0 2 0 7 50 -1 -1 0.000 0 0 -1 0 0 2
	 5535 6300 5535 6525
2 1 0 2 0 7 50 -1 -1 0.000 0 0 -1 0 0 2
	 5805 6300 5805 6525
2 1 0 2 0 7 50 -1 -1 0.000 0 0 -1 0 0 2
	 6075 6300 6075 6525
2 1 0 2 0 7 50 -1 -1 0.000 0 0 -1 0 0 2
	 6345 6300 6345 6525
2 1 0 2 0 7 50 -1 -1 0.000 0 0 -1 0 0 2
	 6615 6300 6615 6525
2 2 0 2 0 7 50 -1 -1 0.000 0 0 -1 0 0 5
	 4725 5850 6885 5850 6885 6075 4725 6075 4725 5850
2 1 0 2 0 7 50 -1 -1 6.000 0 0 -1 0 0 2
	 5805 5040 5805 5310
2 1 0 2 0 7 50 -1 -1 6.000 0 0 -1 0 0 2
	 4725 5040 4725 5310
2 1 0 2 0 7 50 -1 -1 6.000 0 0 -1 0 0 4
	 6975 5355 7020 5355 7020 6120 6975 6120
2 1 0 2 0 7 50 -1 -1 6.000 0 0 7 1 0 2
	1 1 2.00 60.00 60.00
	 7020 5715 8325 5715
2 1 0 2 0 7 50 -1 -1 0.000 0 0 -1 0 0 2
	 8325 6525 8325 6750
2 1 0 2 0 7 50 -1 -1 0.000 0 0 -1 0 0 2
	 7875 6525 7875 6750
2 1 0 2 0 7 50 -1 -1 0.000 0 0 -1 0 0 2
	 8595 6525 8595 6750
2 1 0 2 0 7 50 -1 -1 0.000 0 0 -1 0 0 2
	 9135 6525 9135 6750
2 1 0 2 0 7 50 -1 -1 0.000 0 0 -1 0 0 2
	 8865 6525 8865 6750
2 1 0 2 0 7 50 -1 -1 0.000 0 0 -1 0 0 2
	 9405 6525 9405 6750
2 1 0 2 0 7 50 -1 -1 0.000 0 0 -1 0 0 2
	 9675 6525 9675 6750
2 2 0 2 0 7 50 -1 -1 0.000 0 0 -1 0 0 5
	 7425 6525 10215 6525 10215 6750 7425 6750 7425 6525
2 1 0 2 0 7 50 -1 -1 0.000 0 0 -1 0 0 2
	 9945 6525 9945 6750
2 1 0 2 0 7 50 -1 -1 6.000 0 0 -1 0 0 2
	 9945 5940 9945 6435
2 1 0 2 0 7 50 -1 -1 6.000 0 0 -1 0 0 2
	 8370 6840 9360 6840
2 1 0 2 0 7 50 -1 -1 6.000 0 0 -1 0 0 2
	 9495 6840 9855 6840
2 1 0 2 0 7 50 -1 -1 6.000 0 0 -1 0 0 2
	 9990 6840 10170 6840
2 1 0 2 0 7 50 -1 -1 6.000 0 0 -1 0 0 2
	 10080 6840 10080 6975
2 1 0 2 0 7 50 -1 -1 6.000 0 0 -1 0 0 2
	 9675 6840 9675 7200
2 1 0 2 0 7 50 -1 -1 6.000 0 0 -1 0 0 2
	 8865 6840 8865 6975
2 2 0 0 0 7 60 -1 18 0.000 0 0 -1 0 0 5
	 4725 4725 5805 4725 5805 6525 4725 6525 4725 4725
2 1 0 2 0 7 50 -1 -1 0.000 0 0 -1 0 0 2
	 8595 5625 8595 5850
2 1 0 2 0 7 50 -1 -1 0.000 0 0 -1 0 0 2
	 8865 5625 8865 5850
2 1 0 2 0 7 50 -1 -1 0.000 0 0 -1 0 0 2
	 9135 5625 9135 5850
2 1 0 2 0 7 50 -1 -1 0.000 0 0 -1 0 0 2
	 9405 5625 9405 5850
2 1 0 2 0 7 50 -1 -1 0.000 0 0 -1 0 0 2
	 9675 5625 9675 5850
2 1 0 2 0 7 50 -1 -1 0.000 0 0 -1 0 0 2
	 10170 5445 10170 5580
2 1 0 2 0 7 50 -1 -1 0.000 0 0 -1 0 0 2
	 4500 4545 4500 4680
2 2 0 2 0 7 50 -1 -1 0.000 0 0 -1 0 0 5
	 4725 6300 6885 6300 6885 6525 4725 6525 4725 6300
2 1 0 2 0 7 50 -1 -1 6.000 0 0 -1 0 0 2
	 9405 5940 9405 6435
2 2 0 0 0 7 60 -1 18 0.000 0 0 -1 0 0 5
	 9405 5625 9945 5625 9945 6750 9405 6750 9405 5625
2 2 0 2 0 7 50 -1 -1 0.000 0 0 -1 0 0 5
	 8325 5625 10485 5625 10485 5850 8325 5850 8325 5625
2 2 0 2 0 7 50 -1 15 0.000 0 0 -1 0 0 5
	 10215 5625 10485 5625 10485 5850 10215 5850 10215 5625
2 2 0 2 0 7 50 -1 15 0.000 0 0 -1 0 0 5
	 9945 5625 10215 5625 10215 5850 9945 5850 9945 5625
4 1 0 50 -1 18 12 0.0000 4 135 105 4860 6030 0\001
4 1 0 50 -1 18 12 0.0000 4 135 105 5130 6030 0\001
4 1 0 50 -1 18 12 0.0000 4 135 105 5940 6030 0\001
4 1 0 50 -1 18 12 0.0000 4 135 105 5400 6030 1\001
4 1 0 50 -1 18 12 0.0000 4 135 105 6750 6030 0\001
4 1 0 50 -1 18 12 0.0000 4 135 105 4860 5580 0\001
4 1 0 50 -1 18 12 0.0000 4 135 105 5130 5580 0\001
4 1 0 50 -1 18 12 0.0000 4 135 105 5940 5580 0\001
4 1 0 50 -1 18 12 0.0000 4 135 105 5400 5580 1\001
4 1 0 50 -1 18 12 0.0000 4 135 105 4860 6480 0\001
4 1 0 50 -1 18 12 0.0000 4 135 105 5130 6480 0\001
4 1 0 50 -1 18 12 0.0000 4 135 105 5400 6480 1\001
4 1 0 50 -1 18 12 0.0000 4 135 105 5940 6480 0\001
4 1 0 50 -1 18 12 0.0000 4 135 105 6210 6480 1\001
4 1 0 50 -1 18 12 0.0000 4 135 105 6750 6480 1\001
4 1 0 50 -1 18 12 0.0000 4 135 105 6480 6480 0\001
4 1 0 50 -1 18 12 0.0000 4 135 105 6210 5580 0\001
4 1 0 50 -1 18 12 0.0000 4 135 105 5670 5580 0\001
4 1 0 50 -1 18 12 0.0000 4 135 105 5670 6480 1\001
4 1 0 50 -1 18 12 0.0000 4 135 105 5670 6030 0\001
4 1 0 50 -1 18 12 0.0000 4 135 105 6210 6030 0\001
4 1 0 50 -1 18 12 0.0000 4 135 105 6480 5580 0\001
4 1 0 50 -1 18 12 0.0000 4 135 105 6480 6030 1\001
4 1 0 50 -1 18 12 0.0000 4 135 105 8460 6705 0\001
4 1 0 50 -1 18 12 0.0000 4 135 105 8730 6705 0\001
4 1 0 50 -1 18 12 0.0000 4 135 105 9000 6705 1\001
4 1 0 50 -1 18 12 0.0000 4 135 105 9270 6705 0\001
4 1 0 50 -1 18 12 0.0000 4 150 270 7650 6705 AC\001
4 1 0 50 -1 18 12 0.0000 4 135 105 8100 6705 7\001
4 1 0 50 -1 18 12 0.0000 4 135 105 9540 6705 0\001
4 1 0 50 -1 18 12 0.0000 4 135 105 9810 6705 0\001
4 1 0 50 -1 18 12 0.0000 4 135 105 10080 6705 0\001
4 2 0 50 -1 22 12 0.0000 4 180 765 8955 7155 Old prefix\001
4 0 0 50 -1 22 12 0.0000 4 135 810 9990 7155 Pick 0 or 1\001
4 1 0 50 -1 22 12 0.0000 4 135 720 9675 7380 Received\001
4 1 0 50 -1 22 12 0.0000 4 135 480 5265 5265 Match\001
4 1 0 50 -1 22 12 0.0000 4 135 450 9675 6255 Learn\001
4 1 0 50 -1 22 12 0.0000 4 135 120 4500 5580 A\001
4 1 0 50 -1 22 12 0.0000 4 135 120 4500 6030 B\001
4 1 0 50 -1 22 12 0.0000 4 135 120 4500 6480 C\001
4 1 0 50 -1 18 12 0.0000 4 135 105 8460 5805 0\001
4 1 0 50 -1 18 12 0.0000 4 135 105 8730 5805 0\001
4 1 0 50 -1 18 12 0.0000 4 135 105 9000 5805 1\001
4 1 0 50 -1 18 12 0.0000 4 135 105 9270 5805 0\001
4 1 0 50 -1 18 12 0.0000 4 135 105 9540 5805 0\001
4 1 0 50 -1 18 12 0.0000 4 135 105 9810 5805 0\001
4 1 0 50 -1 18 12 0.0000 4 135 105 6750 5580 1\001
4 1 0 50 -1 22 12 0.0000 4 135 705 10170 5400 Collision\001
4 0 0 50 -1 22 12 0.0000 4 180 1005 4410 4500 Prefix length\001
4 0 0 50 -1 22 12 0.0000 4 180 420 3825 4635 AC(t)\001
4 0 0 50 -1 22 12 0.0000 4 180 600 7425 6435 AC(t+1)\001
4 0 0 50 -1 22 12 0.0000 4 180 1155 8325 5535 Card response\001
4 1 0 50 -1 22 12 0.0000 4 135 1230 5805 6795 Card addresses\001
