#FIG 3.2  Produced by xfig version 3.2.5c
Landscape
Center
Metric
A4      
100.00
Single
-2
1200 2
2 1 0 2 0 7 50 -1 -1 0.000 0 0 -1 0 0 2
	 1800 2925 3600 2925
2 1 0 2 0 7 50 -1 -1 0.000 0 0 -1 0 0 2
	 4050 2925 5625 2925
2 1 0 2 0 7 50 -1 -1 0.000 0 0 -1 0 0 4
	 675 2475 2025 2475 2025 4500 675 4500
2 1 0 2 0 7 50 -1 -1 0.000 0 0 -1 0 0 4
	 6525 2475 5625 2475 5625 4500 6525 4500
2 1 0 2 0 7 50 -1 -1 0.000 0 0 -1 1 0 2
	1 1 2.00 60.00 60.00
	 2700 2790 3150 2790
2 1 0 2 0 7 50 -1 -1 0.000 0 0 -1 1 0 2
	1 1 2.00 60.00 60.00
	 2250 3330 2250 2970
2 1 0 2 0 7 50 -1 -1 6.000 0 0 -1 0 0 2
	 2160 3375 2340 3375
2 1 0 2 0 7 50 -1 -1 0.000 0 0 -1 1 0 2
	1 1 2.00 60.00 60.00
	 4725 2790 5175 2790
2 1 0 2 0 7 50 -1 -1 0.000 0 0 -1 1 0 2
	1 1 2.00 60.00 60.00
	 4950 3330 4950 2970
2 1 0 2 0 7 50 -1 -1 6.000 0 0 -1 0 0 2
	 4860 3375 5040 3375
2 1 0 2 0 7 50 -1 -1 0.000 0 0 -1 0 0 2
	 2025 4050 2475 4050
2 3 0 2 0 7 50 -1 -1 0.000 0 0 -1 0 0 4
	 3150 4500 2475 4050 3150 3600 3150 4500
2 1 0 2 0 7 50 -1 -1 0.000 0 0 -1 0 0 2
	 2970 4275 3060 4275
2 1 0 2 0 7 50 -1 -1 0.000 0 0 -1 0 0 2
	 3015 3780 3015 3870
2 1 0 2 0 7 50 -1 -1 0.000 0 0 -1 0 0 3
	 4275 2925 4275 4275 3150 4275
2 1 0 2 0 7 50 -1 -1 0.000 0 0 -1 0 0 2
	 2970 3825 3060 3825
2 2 0 2 0 7 50 -1 -1 0.000 0 0 -1 0 0 5
	 1530 2880 1800 2880 1800 2970 1530 2970 1530 2880
2 2 0 2 0 7 50 -1 -1 0.000 0 0 -1 0 0 5
	 3600 2835 4050 2835 4050 3015 3600 3015 3600 2835
2 1 0 2 0 7 50 -1 -1 0.000 0 0 -1 1 0 2
	1 1 2.00 60.00 60.00
	 4140 3150 4140 3600
2 1 0 2 0 7 50 -1 -1 0.000 0 0 -1 0 0 2
	 3600 3825 3150 3825
2 1 0 2 0 7 50 -1 -1 0.000 0 0 -1 0 0 3
	 1125 2790 1125 2925 1530 2925
4 0 0 50 -1 22 12 0.0000 4 180 795 5715 2970 SWIO (C6)\001
4 1 0 50 -1 22 12 0.0000 4 180 840 1440 2385 CPU (CLF)\001
4 1 0 50 -1 22 12 0.0000 4 180 945 6075 2385 Card (UICC)\001
4 0 0 50 -1 22 12 0.0000 4 135 450 5040 3240 Vcard\001
4 0 0 50 -1 22 12 0.0000 4 180 420 2340 3240 Vswp\001
4 1 0 50 -1 22 12 0.0000 4 135 390 4950 2700 Icard\001
4 1 0 50 -1 22 12 0.0000 4 180 360 2925 2700 Iswp\001
4 2 0 50 -1 22 12 0.0000 4 165 615 1935 4095 SWP_IN\001
4 1 0 50 -1 22 12 0.0000 4 135 585 3825 2790 Rshunt\001
4 2 0 50 -1 22 12 0.0000 4 180 390 4050 3420 Icmp\001
4 0 0 50 -1 22 12 0.0000 4 135 270 3690 3870 Vth\001
4 1 0 50 -1 22 12 0.0000 4 135 330 1665 2835 Ron\001
4 2 0 50 -1 22 12 0.0000 4 165 795 1935 3195 SWP_OUT\001
4 1 0 50 -1 22 12 0.0000 4 135 255 1125 2745 Vio\001
