<Qucs Schematic 0.0.18>
<Properties>
  <View=0,0,1222,953,1,0,0>
  <Grid=10,10,1>
  <DataSet=ilim-t.dat>
  <DataDisplay=ilim-t.dpl>
  <OpenDisplay=0>
  <Script=ilim-t.m>
  <RunScript=0>
  <showFrame=0>
  <FrameText0=Title>
  <FrameText1=Drawn By:>
  <FrameText2=Date:>
  <FrameText3=Revision:>
</Properties>
<Symbol>
</Symbol>
<Components>
  <.TR TR1 1 70 40 0 77 0 0 "lin" 1 "0" 1 "1 ms" 1 "1100" 0 "Trapezoidal" 0 "2" 0 "1 ns" 0 "1e-16" 0 "150" 0 "0.001" 0 "1 pA" 0 "1 uV" 0 "26.85" 0 "1e-3" 0 "1e-6" 0 "1" 0 "CroutLU" 0 "no" 0 "yes" 0 "0" 0>
  <IProbe Pr1 1 790 120 -26 16 0 0>
  <R R1 1 330 120 -34 -66 1 0 "27 Ohm" 1 "26.85" 0 "0.0" 0 "0.0" 0 "26.85" 0 "european" 0>
  <Diode D1 1 880 190 23 -56 0 1 "1e-17 A" 1 "1.3" 1 "21 pF" 1 "0.5" 0 "0.7 V" 0 "0.5" 0 "0.0 fF" 0 "0.0" 0 "2.0" 0 "0.5 Ohm" 1 "0.0 ps" 0 "0" 0 "0.0" 0 "1.0" 0 "1.0" 0 "0" 0 "1 mA" 0 "26.85" 0 "3.0" 0 "1.11" 0 "0.0" 0 "0.0" 0 "0.0" 0 "0.0" 0 "0.0" 0 "0.0" 0 "26.85" 0 "1.0" 0 "normal" 0>
  <Vdc V1 1 240 250 18 -26 0 1 "4.2 V" 1>
  <C C1 1 400 250 17 -26 1 3 "22 uF" 1 "" 0 "neutral" 0>
  <R R2 1 550 120 -30 -62 1 0 "3.3 Ohm" 1 "26.85" 0 "0.0" 0 "0.0" 0 "26.85" 0 "european" 0>
  <Eqn Eqn1 1 900 530 -23 16 0 0 "Vf=Vir.Vt-Vt1.Vt" 1 "yes" 0>
  <GND * 1 880 440 0 0 0 0>
  <GND * 1 540 440 0 0 0 0>
  <GND * 1 400 440 0 0 0 0>
  <GND * 1 240 440 0 0 0 0>
  <Switch S1 1 650 330 -26 11 0 0 "off" 0 "100 us" 1 "0" 0 "1e12" 0 "26.85" 0 "1e-6" 0>
  <Vdc V2 1 540 390 18 -26 0 1 "3.3 V" 1>
  <R R3 1 780 330 -26 15 0 0 "560 Ohm" 1 "26.85" 0 "0.0" 0 "0.0" 0 "26.85" 0 "european" 0>
  <_BJT T1 1 880 330 24 -23 0 0 "npn" 0 "1e-16" 0 "1" 0 "1" 0 "0" 0 "0" 0 "0" 0 "0" 0 "0" 0 "1.5" 0 "0" 0 "2" 0 "100" 1 "1" 0 "0" 0 "0" 0 "0" 0 "0" 0 "0" 0 "0" 0 "0.75" 0 "0.33" 0 "0" 0 "0.75" 0 "0.33" 0 "1.0" 0 "0" 0 "0.75" 0 "0" 0 "0.5" 0 "0.0" 0 "0.0" 0 "0.0" 0 "0.0" 0 "0.0" 0 "26.85" 0 "0.0" 0 "1.0" 0 "1.0" 0 "0.0" 0 "1.0" 0 "1.0" 0 "0.0" 0 "0.0" 0 "3.0" 0 "1.11" 0 "26.85" 0 "1.0" 0>
</Components>
<Wires>
  <360 120 400 120 "" 0 0 0 "">
  <400 120 520 120 "" 0 0 0 "">
  <820 120 880 120 "" 0 0 0 "">
  <880 120 880 160 "" 0 0 0 "">
  <580 120 760 120 "" 0 0 0 "">
  <240 120 300 120 "" 0 0 0 "">
  <240 120 240 220 "" 0 0 0 "">
  <400 120 400 220 "" 0 0 0 "">
  <240 280 240 440 "" 0 0 0 "">
  <400 280 400 440 "" 0 0 0 "">
  <540 420 540 440 "" 0 0 0 "">
  <680 330 750 330 "" 0 0 0 "">
  <540 330 620 330 "" 0 0 0 "">
  <540 330 540 360 "" 0 0 0 "">
  <880 360 880 440 "" 0 0 0 "">
  <880 220 880 300 "Vt1" 830 250 56 "">
  <810 330 850 330 "" 0 0 0 "">
  <880 120 880 120 "Vir" 910 90 0 "">
</Wires>
<Diagrams>
  <Rect 101 803 660 304 3 #c0c0c0 1 00 1 0 0.0001 0.001 0 0 0.1 0.5 0 0 0.2 3 315 0 225 "" "" "">
	<"Vf" #0000ff 3 3 0 0 1>
	<"Pr1.It" #ff0000 3 3 0 0 0>
	<"Vir.Vt" #55aa7f 3 3 0 0 1>
  </Rect>
</Diagrams>
<Paintings>
  <Text 310 130 12 #000000 0 "1/4 W">
  <Text 470 160 12 #000000 0 "Maybe ESR10EZPJ3R3">
  <Text 570 210 12 #000000 0 "Very rough VSMB2948SL approximation">
  <Text 470 130 12 #000000 0 "1.2 W peak (try 0.4 W)">
</Paintings>
