<Qucs Schematic 0.0.18>
<Properties>
  <View=-65,-43,1576,1065,1,530,43>
  <Grid=10,10,1>
  <DataSet=irrxj.dat>
  <DataDisplay=irrxj.dpl>
  <OpenDisplay=0>
  <Script=irrxj.m>
  <RunScript=0>
  <showFrame=0>
  <FrameText0=Title>
  <FrameText1=Drawn By:>
  <FrameText2=Date:>
  <FrameText3=Revision:>
</Properties>
<Symbol>
</Symbol>
<Components>
  <Vdc V1 1 340 370 18 -26 0 1 "1.8 V" 1>
  <Eqn Eqn2 1 50 440 -23 16 0 0 "Vc0=V1.U/(Rabove+Rbelow)*Rbelow" 1 "Rabove=1/(1/R3.R+1/(R1.R+R2.R))" 1 "Rbelow=1/(1/(R5.R+R6.R)+1/R4.R)" 1 "yes" 0>
  <R R3 1 720 130 15 -26 0 1 "4.7 MOhm" 1 "26.85" 0 "0.0" 0 "0.0" 0 "26.85" 0 "european" 0>
  <photodiode PD1 1 560 170 30 3 0 3 "1.35" 0 "1e-3" 0 "1e-9" 1 "32" 1 "100e-6" 1 "0.7" 0 "4e-12" 1 "0.5" 0 "1" 0 "26.85" 0 "0.5" 0 "100e-9" 0 "3.0" 0 "1.16" 0 "0.62" 0 "5e8" 0 "90" 1 "900" 0 "1" 0 "1e-12" 0 "1.0" 0 "1.0" 0 "26.85" 0>
  <C C1 0 1190 60 -24 -63 1 0 "0.1 pF" 1 "" 0 "neutral" 0>
  <Vdc V3 1 240 150 18 -26 0 1 "0.9 V" 1>
  <GND * 1 240 200 0 0 0 0>
  <OpAmp OP2 1 1190 220 -26 42 0 0 "1e6" 1 "0.9 V" 1>
  <Vac V2 1 420 230 18 -26 0 1 "Pwr" 1 "10 kHz" 1 "0" 0 "0" 0>
  <.TR TR1 1 40 60 0 77 0 0 "lin" 1 "0" 1 "2 ms" 1 "5200" 0 "Trapezoidal" 0 "4" 0 "1 ns" 0 "1e-16" 0 "250" 0 "0.001" 0 "1 pA" 0 "1 uV" 0 "26.85" 0 "1e-3" 0 "1e-6" 0 "1" 0 "CroutLU" 0 "no" 0 "yes" 0 "0" 0>
  <GND * 1 420 340 0 0 0 0>
  <Vdc V4 1 420 310 18 -26 0 1 "Pwr" 1>
  <R R5 1 720 270 15 -26 0 1 "50 kOhm" 1 "26.85" 0 "0.0" 0 "0.0" 0 "26.85" 0 "european" 0>
  <R R4 1 840 270 15 -26 0 1 "1.5 MOhm" 1 "26.85" 0 "0.0" 0 "0.0" 0 "26.85" 0 "european" 0>
  <R R6 1 560 450 15 -26 0 1 "22 kOhm" 1 "26.85" 0 "0.0" 0 "0.0" 0 "26.85" 0 "european" 0>
  <R R1 1 1190 140 -24 -68 0 2 "10 MOhm" 1 "26.85" 0 "0.0" 0 "0.0" 0 "26.85" 0 "european" 0>
  <R R2 1 1050 200 -30 -65 0 2 "33 kOhm" 1 "26.85" 0 "0.0" 0 "0.0" 0 "26.85" 0 "european" 0>
  <Eqn Eqn1 1 50 260 -23 16 0 0 "Ee=0.5" 1 "Area=0.23/100" 1 "Pwr=Ee*Area/1000*tweak" 1 "tweak=2" 1 "Pwr2=Pwr/2" 1 "yes" 0>
  <R R7 1 1350 220 -26 -64 0 2 "10 kOhm" 1 "26.85" 0 "0.0" 0 "0.0" 0 "26.85" 0 "european" 0>
  <C C2 1 980 270 23 -8 0 3 "100 nF" 1 "Vc0" 1 "polar" 0>
</Components>
<Wires>
  <720 160 720 200 "" 0 0 0 "">
  <720 200 720 240 "" 0 0 0 "">
  <720 300 720 380 "" 0 0 0 "">
  <560 380 560 420 "" 0 0 0 "">
  <560 380 720 380 "" 0 0 0 "">
  <560 480 560 520 "" 0 0 0 "">
  <340 400 340 520 "" 0 0 0 "">
  <340 60 340 340 "" 0 0 0 "">
  <720 60 720 100 "" 0 0 0 "">
  <340 60 560 60 "" 0 0 0 "">
  <560 60 720 60 "" 0 0 0 "">
  <560 60 560 140 "" 0 0 0 "">
  <560 200 560 380 "" 0 0 0 "">
  <420 170 420 200 "" 0 0 0 "">
  <420 170 530 170 "Light" 390 100 5 "">
  <720 380 1120 380 "Vneg" 710 430 134 "">
  <1080 200 1120 200 "" 0 0 0 "">
  <1120 200 1160 200 "" 0 0 0 "">
  <720 200 840 200 "" 0 0 0 "">
  <980 200 1020 200 "" 0 0 0 "">
  <980 200 980 240 "" 0 0 0 "">
  <980 300 980 320 "" 0 0 0 "">
  <1120 240 1160 240 "" 0 0 0 "">
  <1230 220 1280 220 "" 0 0 0 "">
  <1280 220 1320 220 "" 0 0 0 "">
  <1120 240 1120 380 "" 0 0 0 "">
  <1120 140 1120 200 "" 0 0 0 "">
  <1120 140 1160 140 "" 0 0 0 "">
  <1280 140 1280 220 "" 0 0 0 "">
  <1220 140 1280 140 "" 0 0 0 "">
  <1120 60 1120 140 "" 0 0 0 "">
  <1120 60 1160 60 "" 0 0 0 "">
  <1280 60 1280 140 "" 0 0 0 "">
  <1220 60 1280 60 "" 0 0 0 "">
  <840 200 980 200 "Vref" 930 150 19 "">
  <840 200 840 240 "" 0 0 0 "">
  <840 300 840 320 "" 0 0 0 "">
  <340 520 560 520 "" 0 0 0 "">
  <840 320 980 320 "" 0 0 0 "">
  <780 320 840 320 "" 0 0 0 "">
  <780 320 780 520 "" 0 0 0 "">
  <560 520 780 520 "" 0 0 0 "">
  <240 60 240 120 "" 0 0 0 "">
  <240 60 340 60 "" 0 0 0 "">
  <240 180 240 200 "" 0 0 0 "">
  <420 260 420 280 "" 0 0 0 "">
  <1380 220 1380 220 "Vout" 1430 250 0 "">
  <1120 140 1120 140 "Vpos" 1050 80 0 "">
</Wires>
<Diagrams>
  <Rect 90 820 907 223 3 #c0c0c0 1 00 1 0 0.0002 0.004 1 -0.217806 1 2.31213 1 -1 0.5 1 315 0 225 "" "" "">
	<"Vref.Vt" #0000ff 0 3 0 0 0>
	<"Vneg.Vt" #ff0000 0 3 0 0 0>
	<"Vout.Vt" #aa007f 0 3 0 0 0>
	<"Vpos.Vt" #00ff00 0 3 0 0 0>
  </Rect>
  <Rect 884 563 239 172 3 #c0c0c0 1 00 1 0 0.0005 0.003 1 -0.188096 0.5 2 1 -1 0.5 1 315 0 225 "" "" "">
	<"Vout.Vt" #0000ff 0 3 0 0 0>
  </Rect>
  <Rect 1200 570 240 160 3 #c0c0c0 1 00 1 0 0.2 1 1 -0.1 0.5 1.1 1 -0.1 0.5 1.1 315 0 225 "" "" "">
	<"Light.Vt" #0000ff 0 3 0 0 0>
  </Rect>
</Diagrams>
<Paintings>
  <Text 580 130 12 #000000 0 "VEMD10940F">
  <Text 1180 160 12 #000000 0 "NCX2200">
  <Text 1110 590 12 #000000 0 "Dimensioning:\nR1 = 10 * (R3 || R4 || R5)\nR2 = 0.01 * R1 (adjust hysteresis)\nR3 = 4.7 M\nR4 = 0.8 * R3 (threshold adjustment)\nR5 = 0.2 * R3 (threshold adjustment)\nR6 = 18 k\nC1*R2 = 1 us\nC2*R5 = 1 s">
  <Text 150 300 12 #000000 0 "mW/cm^2">
  <Text 150 320 12 #000000 0 "cm^2">
  <Text 230 350 12 #000000 0 "W">
</Paintings>
