#FIG 3.2  Produced by xfig version 3.2.6
Landscape
Center
Metric
A4
100.00
Single
-2
1200 2
6 7695 6570 8280 7470
2 2 0 3 0 7 50 -1 -1 0.000 0 0 -1 0 0 5
	 7785 6615 7965 6615 7965 7020 7785 7020 7785 6615
2 1 0 3 0 7 50 -1 -1 0.000 0 0 -1 0 0 2
	 7875 7020 7875 7425
2 1 0 3 0 7 50 -1 -1 0.000 0 0 -1 0 0 2
	 7740 7425 8010 7425
4 0 0 50 -1 22 12 0.0000 4 135 210 8010 6795 R6\001
4 0 0 50 -1 22 12 0.0000 4 135 270 8010 7020 22k\001
-6
2 1 0 3 0 7 50 -1 -1 0.000 0 0 -1 0 0 2
	 7245 4635 5175 4635
2 3 0 3 0 7 50 -1 -1 0.000 1 0 -1 0 0 4
	 8325 5805 8325 4275 9450 5040 8325 5805
2 1 0 3 0 7 50 -1 -1 0.000 0 0 -1 0 0 2
	 7650 4635 8325 4635
2 1 0 3 0 7 50 -1 -1 0.000 0 0 -1 0 0 3
	 8775 3825 8010 3825 8010 4635
2 1 0 3 0 7 50 -1 -1 0.000 0 0 7 0 0 2
	 9450 5040 10125 5040
2 1 0 3 0 7 50 -1 -1 0.000 0 0 -1 0 0 2
	 8415 4635 8595 4635
2 1 0 3 0 7 50 -1 -1 0.000 0 0 -1 0 0 2
	 8505 4545 8505 4725
2 1 0 3 0 7 50 -1 -1 0.000 0 0 -1 0 0 2
	 8415 5445 8595 5445
2 1 0 3 0 7 50 -1 -1 0.000 0 0 -1 0 0 4
	 8325 5445 7875 5445 7875 6300 6570 6300
2 2 0 3 0 7 50 -1 -1 0.000 0 0 -1 0 0 5
	 7245 4545 7650 4545 7650 4725 7245 4725 7245 4545
2 1 0 3 0 7 50 -1 -1 0.000 0 0 -1 0 0 2
	 6885 4635 6885 5175
2 1 0 3 0 7 50 -1 -1 0.000 0 0 -1 0 0 2
	 6750 5175 7020 5175
2 1 0 3 0 7 50 -1 -1 0.000 0 0 -1 0 0 2
	 6885 5265 6885 5850
2 1 0 3 0 7 50 -1 -1 0.000 0 0 -1 0 0 2
	 6750 5265 7020 5265
2 1 0 3 0 7 50 -1 -1 0.000 0 0 -1 0 0 2
	 6750 5850 7020 5850
2 2 0 3 0 7 50 -1 -1 0.000 0 0 -1 0 0 5
	 9180 3915 8775 3915 8775 3735 9180 3735 9180 3915
2 1 0 3 0 7 50 -1 -1 0.000 0 0 -1 0 0 3
	 9180 3825 9765 3825 9765 5040
2 1 0 3 0 7 50 -1 -1 0.000 0 0 7 1 0 2
	1 1 3.00 45.00 45.00
	 10530 5040 11025 5040
2 1 0 3 0 7 50 -1 -1 0.000 0 0 -1 0 0 2
	 5895 5580 5895 6300
2 2 0 3 0 7 50 -1 -1 0.000 0 0 -1 0 0 5
	 5805 5175 5985 5175 5985 5580 5805 5580 5805 5175
2 1 0 3 0 7 50 -1 -1 0.000 0 0 -1 0 0 2
	 5895 4635 5895 5175
2 1 0 3 0 7 50 -1 -1 0.000 0 0 -1 0 0 2
	 5175 4230 5175 5040
2 2 0 3 0 7 50 -1 -1 0.000 0 0 -1 0 0 5
	 5085 5040 5265 5040 5265 5445 5085 5445 5085 5040
2 1 0 3 0 7 50 -1 -1 0.000 0 0 -1 0 0 2
	 5175 5445 5175 5850
2 1 0 3 0 7 50 -1 -1 0.000 0 0 -1 0 0 2
	 5040 5850 5310 5850
2 1 0 3 0 7 50 -1 -1 0.000 0 0 -1 0 0 2
	 5175 3375 5175 3825
2 2 0 3 0 7 50 -1 -1 0.000 0 0 -1 0 0 5
	 5085 3825 5265 3825 5265 4230 5085 4230 5085 3825
2 1 0 3 0 7 50 -1 -1 0.000 0 0 -1 0 0 2
	 4590 3375 4590 4320
2 3 0 3 0 7 50 -1 -1 0.000 1 1 -1 0 0 4
	 4500 4500 4680 4500 4590 4320 4500 4500
2 1 0 3 0 7 50 -1 -1 0.000 1 1 -1 0 0 2
	 4680 4320 4500 4320
2 1 0 2 0 7 50 -1 -1 0.000 0 0 -1 1 0 2
	1 1 2.00 30.00 22.50
	 4320 4320 4455 4365
2 1 0 2 0 7 50 -1 -1 0.000 0 0 -1 1 0 2
	1 1 2.00 30.00 22.50
	 4320 4410 4455 4455
2 1 0 3 0 7 50 -1 -1 0.000 0 0 7 1 0 2
	1 1 3.00 45.00 45.00
	 4590 5400 4140 5400
2 2 0 3 0 7 50 -1 -1 0.000 0 0 7 0 0 5
	 10125 4950 10530 4950 10530 5130 10125 5130 10125 4950
2 1 0 3 0 7 50 -1 -1 0.000 0 0 -1 0 0 2
	 8865 6075 8865 5445
2 1 0 3 0 7 50 -1 -1 0.000 0 0 -1 0 0 4
	 4590 4500 4590 6300 6300 6300 6525 6210
2 2 0 3 0 7 50 -1 -1 0.000 0 0 -1 0 0 5
	 6210 6075 6660 6075 6660 6525 6210 6525 6210 6075
2 1 0 3 0 7 50 -1 -1 0.000 0 0 -1 0 0 2
	 6435 6975 6435 6525
3 2 0 3 0 7 50 -1 -1 0.000 0 0 0 2
	 7875 6300 7875 6615
	 0.000 0.000
4 0 0 50 -1 22 12 0.0000 4 135 210 8955 4635 U1\001
4 1 0 50 -1 22 12 0.0000 4 135 120 6300 4590 A\001
4 0 0 50 -1 22 12 0.0000 4 135 270 7245 4500 33k\001
4 0 0 50 -1 22 12 0.0000 4 135 210 7245 4320 R2\001
4 0 0 50 -1 22 12 0.0000 4 135 210 7065 5175 C1\001
4 0 0 50 -1 22 12 0.0000 4 135 480 7065 5355 100nF\001
4 0 0 50 -1 22 12 0.0000 4 135 315 8775 3690 10M\001
4 0 0 50 -1 22 12 0.0000 4 135 210 8775 3510 R1\001
4 0 0 50 -1 23 12 0.0000 4 180 1200 9810 5400 Acts as pull-up\001
4 0 0 50 -1 22 12 0.0000 4 135 270 10125 4905 10k\001
4 0 0 50 -1 22 12 0.0000 4 135 210 10125 4725 R7\001
4 0 0 50 -1 22 12 0.0000 4 135 225 11070 5085 RX\001
4 0 0 50 -1 22 12 0.0000 4 135 210 6030 5355 R5\001
4 0 0 50 -1 22 12 0.0000 4 135 270 6030 5535 50k\001
4 0 0 50 -1 22 12 0.0000 4 135 360 5310 5400 1.5M\001
4 0 0 50 -1 22 12 0.0000 4 135 210 5310 5220 R4\001
4 0 0 50 -1 22 12 0.0000 4 135 210 5310 4005 R3\001
4 0 0 50 -1 22 12 0.0000 4 135 360 5310 4185 4.7M\001
4 1 0 50 -1 22 12 0.0000 4 135 285 5175 3330 1V8\001
4 1 0 50 -1 22 12 0.0000 4 135 285 4590 3330 1V8\001
4 0 0 50 -1 22 12 0.0000 4 135 210 4320 4230 D1\001
4 2 0 50 -1 22 12 0.0000 4 135 1020 4500 4725 VEMD10940F\001
4 2 0 50 -1 22 12 0.0000 4 135 1005 4095 5445 Audio codec\001
4 1 0 50 -1 22 12 0.0000 4 135 120 4950 6255 B\001
4 1 0 50 -1 22 12 0.0000 4 180 645 8865 6255 bq.GPIO\001
4 1 0 50 -1 22 12 0.0000 4 135 210 6435 6030 U2\001
4 1 0 50 -1 22 12 0.0000 4 180 645 6435 7155 bq.GPIO\001
4 0 0 50 -1 22 12 0.0000 4 135 810 6525 6750 NX3V1G66\001
4 1 0 50 -1 22 12 0.0000 4 135 120 7875 5400 C\001
