#FIG 3.2  Produced by xfig version 3.2.5c
Landscape
Center
Metric
A4      
100.00
Single
-2
1200 2
1 3 0 2 0 7 50 -1 20 0.000 1 0.0000 7200 8100 274 274 7200 8100 7474 8100
1 3 0 2 0 7 50 -1 -1 0.000 1 0.0000 7695 8550 180 180 7695 8550 7875 8550
2 1 1 2 0 7 40 -1 -1 4.000 0 0 -1 0 0 2
	 7200 6930 7200 9225
2 1 1 2 0 7 50 -1 -1 4.000 0 0 -1 0 0 2
	 3375 8775 9450 8775
2 2 0 2 0 7 55 -1 18 0.000 0 0 -1 0 0 5
	 5895 8640 6615 8640 6615 8910 5895 8910 5895 8640
2 2 0 2 0 7 60 -1 16 0.000 0 0 -1 0 0 5
	 5850 8955 6795 8955 6795 8640 5850 8640 5850 8955
2 1 0 2 0 7 50 -1 -1 0.000 0 0 -1 1 1 2
	1 1 2.00 60.00 60.00
	1 1 2.00 60.00 60.00
	 5400 8100 5400 8775
2 1 1 2 0 7 50 -1 -1 4.000 0 0 -1 0 0 2
	 7200 8550 8550 8550
2 1 0 2 0 7 50 -1 -1 0.000 0 0 -1 1 1 2
	1 1 2.00 60.00 60.00
	1 1 2.00 60.00 60.00
	 4500 7695 4500 8775
2 1 0 2 0 7 50 -1 -1 0.000 0 0 -1 0 0 2
	 5805 7695 4410 7695
2 2 0 2 0 7 55 -1 18 0.000 0 0 -1 0 0 5
	 5895 7695 8505 7695 8505 8325 5895 8325 5895 7695
2 2 0 2 0 7 56 -1 18 0.000 0 0 -1 0 0 5
	 6435 7200 7965 7200 7965 7785 6435 7785 6435 7200
2 1 0 2 0 7 50 -1 -1 0.000 0 0 -1 0 0 2
	 5805 7200 3510 7200
2 1 0 2 0 7 50 -1 -1 0.000 0 0 -1 1 1 2
	1 1 2.00 60.00 60.00
	1 1 2.00 60.00 60.00
	 3600 7200 3600 8775
2 1 1 2 0 7 40 -1 -1 4.000 0 0 -1 0 0 2
	 7605 8100 5175 8100
2 1 0 2 0 7 50 -1 -1 0.000 0 0 -1 0 0 2
	 5895 6210 5895 7605
2 1 0 2 0 7 50 -1 -1 0.000 0 0 -1 0 0 2
	 8505 6210 8505 7605
2 1 0 2 0 7 50 -1 -1 0.000 0 0 -1 0 0 2
	 8055 7200 9315 7200
2 1 0 2 0 7 50 -1 -1 0.000 0 0 -1 0 0 2
	 8595 8325 9315 8325
2 1 0 2 0 7 50 -1 -1 0.000 0 0 -1 1 1 2
	1 1 2.00 60.00 60.00
	1 1 2.00 60.00 60.00
	 6435 6750 7965 6750
2 1 0 2 0 7 50 -1 -1 0.000 0 0 -1 1 0 2
	1 1 2.00 60.00 60.00
	 8325 8370 8325 8550
2 1 0 2 0 7 50 -1 -1 0.000 0 0 -1 1 0 2
	1 1 2.00 60.00 60.00
	 8325 9000 8325 8775
2 1 0 2 0 7 50 -1 -1 0.000 0 0 -1 0 0 2
	 8325 8550 8325 8775
2 1 0 2 0 7 40 -1 -1 0.000 0 0 -1 0 0 2
	 6975 8415 7110 8235
2 1 0 2 0 7 40 -1 -1 0.000 0 0 -1 0 0 2
	 7695 8910 7695 8640
2 1 0 2 0 7 50 -1 -1 0.000 0 0 -1 1 1 2
	1 1 2.00 60.00 60.00
	1 1 2.00 60.00 60.00
	 9225 8325 9225 8775
2 1 0 2 0 7 50 -1 -1 0.000 0 0 -1 1 1 2
	1 1 2.00 60.00 60.00
	1 1 2.00 60.00 60.00
	 9225 7200 9225 8325
2 2 0 0 0 7 60 -1 18 0.000 0 0 -1 0 0 5
	 5850 9405 6795 9405 6795 9090 5850 9090 5850 9405
2 2 0 0 0 7 60 -1 18 0.000 0 0 7 0 0 5
	 7605 9630 8550 9630 8550 9315 7605 9315 7605 9630
2 2 0 0 0 7 60 -1 18 0.000 0 0 7 0 0 5
	 7605 9180 8550 9180 8550 8865 7605 8865 7605 9180
2 1 0 2 0 7 50 -1 -1 0.000 0 0 -1 1 1 2
	1 1 2.00 60.00 60.00
	1 1 2.00 60.00 60.00
	 5895 6300 8505 6300
2 1 0 2 0 7 50 -1 -1 0.000 0 0 -1 0 0 2
	 6435 6660 6435 7110
2 1 0 2 0 7 50 -1 -1 0.000 0 0 -1 0 0 2
	 7965 6660 7965 7110
2 2 0 0 0 7 60 -1 18 0.000 0 0 -1 0 0 5
	 5850 9855 6795 9855 6795 9540 5850 9540 5850 9855
4 2 0 50 -1 22 12 0.0000 4 135 660 5355 8505 1.55 mm\001
4 2 0 50 -1 22 12 0.0000 4 135 660 4455 8280 2.42 mm\001
4 2 0 50 -1 22 12 0.0000 4 135 660 3555 8055 3.50 mm\001
4 1 0 50 -1 22 12 0.0000 4 135 525 7695 9045 Conan\001
4 1 0 50 -1 22 12 0.0000 4 135 525 7965 8010 Conan\001
4 1 0 50 -1 22 12 0.0000 4 135 675 6840 7515 DF9/M40\001
4 0 0 50 -1 22 12 0.0000 4 135 660 8415 8730 0.52 mm\001
4 2 0 50 -1 22 12 0.0000 4 135 675 6930 8550 DF9/M40\001
4 1 0 50 -1 22 12 0.0000 4 135 660 7200 6705 3.40 mm\001
4 0 0 50 -1 22 12 0.0000 4 135 660 9315 8640 1.02 mm\001
4 0 0 50 -1 22 12 0.0000 4 135 660 9315 7830 2.48 mm\001
4 1 0 50 -1 22 12 0.0000 4 135 525 6255 8865 Conan\001
4 2 0 50 -1 22 12 0.0000 4 135 675 6300 9135 DF9/M40\001
4 1 0 50 -1 22 12 0.0000 4 135 660 7200 6255 5.85 mm\001
